[
  "org.kde.ktouch",
  "kdiff3.desktop",
  "org.kde.kbibtex",
  "org.kde.klettres",
  "org.kde.kfourinline",
  "org.kde.kbounce",
  "org.kde.krdc",
  "org.kde.kphotoalbum.desktop",
  "org.kde.marble",
  "org.kde.kcachegrind",
  "kalgebramobile.desktop",
  "org.kde.kgeography",
  "org.kde.kcolorchooser",
  "org.kde.kbreakout",
  "org.kde.kjumpingcube",
  "kopete.desktop",
  "org.kde.kalgebra",
  "org.kde.kdesvn",
  "libkgraphviewer",
  "org.kde.cuttlefish.desktop",
  "org.kde.krita.desktop",
  "systemsettings.desktop",
  "org.kde.kdiamond",
  "org.kde.knetwalk",
  "org.kde.parley",
  "rsibreak.desktop",
  "org.kde.sieveeditor",
  "org.kde.ktuberling"
]
